    4   2.20000     1.05673367     0.00026702
    4   2.21000     1.05838476     0.00022035
    4   2.22000     1.06019858     0.00021145
    4   2.23000     1.06184229     0.00022038
    4   2.24000     1.06409826     0.00018443
    4   2.25000     1.06519329     0.00018798
    4   2.26000     1.06737627     0.00014847
    4   2.27000     1.06910903     0.00026713
    4   2.28000     1.07122316     0.00021913
    4   2.29000     1.07329637     0.00021300
    4   2.30000     1.07550398     0.00015682
    4   2.31000     1.07723840     0.00018329
    4   2.32000     1.07915243     0.00027749
    4   2.33000     1.08125595     0.00035794
    4   2.34000     1.08346256     0.00047275
    6   2.20000     1.05228037     0.00020332
    6   2.21000     1.05464423     0.00024505
    6   2.22000     1.05686567     0.00023688
    6   2.23000     1.05951866     0.00022142
    6   2.24000     1.06215791     0.00020076
    6   2.25000     1.06461292     0.00032821
    6   2.26000     1.06730776     0.00040160
    6   2.27000     1.07009490     0.00026078
    6   2.28000     1.07291805     0.00025866
    6   2.29000     1.07575839     0.00017001
    6   2.30000     1.07914546     0.00033716
    6   2.31000     1.08220097     0.00025556
    6   2.32000     1.08531780     0.00031602
    6   2.33000     1.08882742     0.00033892
    6   2.34000     1.09198291     0.00018238
    8   2.20000     1.04785809     0.00018476
    8   2.21000     1.05029720     0.00026704
    8   2.22000     1.05357257     0.00025176
    8   2.23000     1.05633165     0.00018797
    8   2.24000     1.05998104     0.00033911
    8   2.25000     1.06296282     0.00018972
    8   2.26000     1.06708387     0.00029490
    8   2.27000     1.07098483     0.00044251
    8   2.28000     1.07463390     0.00035253
    8   2.29000     1.07890115     0.00033848
    8   2.30000     1.08270489     0.00024473
    8   2.31000     1.08743369     0.00030305
    8   2.32000     1.09166911     0.00038568
    8   2.33000     1.09600916     0.00034382
    8   2.34000     1.10036134     0.00030321
   10   2.20000     1.04318896     0.00027578
   10   2.21000     1.04708577     0.00026757
   10   2.22000     1.05002877     0.00018550
   10   2.23000     1.05402429     0.00033091
   10   2.24000     1.05807023     0.00030542
   10   2.25000     1.06209600     0.00021906
   10   2.26000     1.06694778     0.00038989
   10   2.27000     1.07142001     0.00025907
   10   2.28000     1.07589687     0.00026895
   10   2.29000     1.08112331     0.00027621
   10   2.30000     1.08650712     0.00024059
   10   2.31000     1.09187670     0.00047101
   10   2.32000     1.09787354     0.00034827
   10   2.33000     1.10386998     0.00046391
   10   2.34000     1.11053863     0.00043586
   12   2.20000     1.03976383     0.00020780
   12   2.21000     1.04354143     0.00013755
   12   2.22000     1.04731498     0.00025667
   12   2.23000     1.05143031     0.00013600
   12   2.24000     1.05660539     0.00014373
   12   2.25000     1.06141754     0.00030593
   12   2.26000     1.06617449     0.00015316
   12   2.27000     1.07144645     0.00033631
   12   2.28000     1.07748822     0.00047013
   12   2.29000     1.08377927     0.00025185
   12   2.30000     1.09092410     0.00035206
   12   2.31000     1.09765665     0.00022131
   12   2.32000     1.10426060     0.00041886
   12   2.33000     1.11214297     0.00027322
   12   2.34000     1.11979450     0.00033250
   14   2.20000     1.03583403     0.00019206
   14   2.21000     1.04029837     0.00025366
   14   2.22000     1.04401727     0.00013211
   14   2.23000     1.04901285     0.00022863
   14   2.24000     1.05415509     0.00032509
   14   2.25000     1.05947381     0.00022789
   14   2.26000     1.06572799     0.00038625
   14   2.27000     1.07203594     0.00044517
   14   2.28000     1.07878534     0.00034769
   14   2.29000     1.08620768     0.00029026
   14   2.30000     1.09480264     0.00025727
   14   2.31000     1.10209232     0.00051210
   14   2.32000     1.11035664     0.00045168
   14   2.33000     1.11949537     0.00044812
   14   2.34000     1.12873993     0.00049428
   16   2.20000     1.03271008     0.00023449
   16   2.21000     1.03666787     0.00019247
   16   2.22000     1.04113610     0.00013055
   16   2.23000     1.04633212     0.00030801
   16   2.24000     1.05177709     0.00027987
   16   2.25000     1.05815929     0.00033704
   16   2.26000     1.06434696     0.00031335
   16   2.27000     1.07201861     0.00037169
   16   2.28000     1.07952494     0.00045162
   16   2.29000     1.08781753     0.00028237
   16   2.30000     1.09700881     0.00050924
   16   2.31000     1.10694464     0.00031125
   16   2.32000     1.11630184     0.00052147
   16   2.33000     1.12780473     0.00048983
   16   2.34000     1.13941028     0.00057742
   18   2.20000     1.02961225     0.00017751
   18   2.21000     1.03390391     0.00020406
   18   2.22000     1.03872613     0.00019629
   18   2.23000     1.04424845     0.00012861
   18   2.24000     1.05047594     0.00027100
   18   2.25000     1.05648542     0.00028429
   18   2.26000     1.06447279     0.00027827
   18   2.27000     1.07229584     0.00029897
   18   2.28000     1.08106238     0.00024762
   18   2.29000     1.09091388     0.00025660
   18   2.30000     1.10188247     0.00053193
   18   2.31000     1.11233077     0.00034271
   18   2.32000     1.12468478     0.00056337
   18   2.33000     1.13758885     0.00047134
   18   2.34000     1.14992376     0.00043466
   20   2.20000     1.02665595     0.00015373
   20   2.21000     1.03140263     0.00010418
   20   2.22000     1.03582229     0.00018432
   20   2.23000     1.04157730     0.00017541
   20   2.24000     1.04776807     0.00019051
   20   2.25000     1.05540553     0.00030287
   20   2.26000     1.06358927     0.00031525
   20   2.27000     1.07256347     0.00032803
   20   2.28000     1.08277217     0.00026453
   20   2.29000     1.09323865     0.00034218
   20   2.30000     1.10565076     0.00057393
   20   2.31000     1.11742542     0.00040529
   20   2.32000     1.13062679     0.00038528
   20   2.33000     1.14584340     0.00034322
   20   2.34000     1.16065869     0.00069727
   24   2.20000     1.02234178     0.00009179
   24   2.21000     1.02649745     0.00006847
   24   2.22000     1.03145990     0.00013154
   24   2.23000     1.03750950     0.00024989
   24   2.24000     1.04473923     0.00026241
   24   2.25000     1.05277570     0.00024895
   24   2.26000     1.06197046     0.00041944
   24   2.27000     1.07306168     0.00036561
   24   2.28000     1.08435019     0.00029357
   24   2.29000     1.09728708     0.00069062
   24   2.30000     1.11352375     0.00059397
   24   2.31000     1.12918018     0.00055991
   24   2.32000     1.14700112     0.00055237
   24   2.33000     1.16533495     0.00070180
   24   2.34000     1.18478044     0.00072390
   26   2.20000     1.02031971     0.00012320
   26   2.21000     1.02433455     0.00015469
   26   2.22000     1.02913905     0.00019633
   26   2.23000     1.03557540     0.00019132
   26   2.24000     1.04308681     0.00032778
   26   2.25000     1.05097539     0.00019760
   26   2.26000     1.06134555     0.00033644
   26   2.27000     1.07295440     0.00042634
   26   2.28000     1.08653189     0.00048602
   26   2.29000     1.10081607     0.00054577
   26   2.30000     1.11725262     0.00056110
   26   2.31000     1.13500729     0.00060896
   26   2.32000     1.15431522     0.00066617
   26   2.33000     1.17518293     0.00019438
   26   2.34000     1.19526365     0.00086206
   28   2.20000     1.01813603     0.00017828
   28   2.21000     1.02252358     0.00011638
   28   2.22000     1.02712137     0.00013062
   28   2.23000     1.03371950     0.00023762
   28   2.24000     1.04089822     0.00025995
   28   2.25000     1.04977272     0.00029176
   28   2.26000     1.06078684     0.00051660
   28   2.27000     1.07321173     0.00029027
   28   2.28000     1.08748360     0.00026740
   28   2.29000     1.10383331     0.00047222
   28   2.30000     1.12115722     0.00059318
   28   2.31000     1.14084029     0.00033027
   28   2.32000     1.16195571     0.00088669
   28   2.33000     1.18337239     0.00074181
   28   2.34000     1.20809167     0.00076010
   30   2.20000     1.01664684     0.00009912
   30   2.21000     1.02064156     0.00018271
   30   2.22000     1.02533970     0.00014750
   30   2.23000     1.03176716     0.00013035
   30   2.24000     1.03922483     0.00027722
   30   2.25000     1.04856703     0.00028384
   30   2.26000     1.05994079     0.00032712
   30   2.27000     1.07274845     0.00041748
   30   2.28000     1.08788453     0.00036022
   30   2.29000     1.10676082     0.00051219
   30   2.30000     1.12545200     0.00046272
   30   2.31000     1.14735562     0.00040271
   30   2.32000     1.17097398     0.00050028
   30   2.33000     1.19422901     0.00070054
   30   2.34000     1.21991243     0.00065315
   32   2.20000     1.01514500     0.00009972
   32   2.21000     1.01914729     0.00012769
   32   2.22000     1.02374777     0.00013038
   32   2.23000     1.02994545     0.00016898
   32   2.24000     1.03752912     0.00023097
   32   2.25000     1.04759655     0.00028195
   32   2.26000     1.05949901     0.00029315
   32   2.27000     1.07319118     0.00025307
   32   2.28000     1.09024917     0.00039583
   32   2.29000     1.10887379     0.00057225
   32   2.30000     1.13076857     0.00055423
   32   2.31000     1.15279596     0.00061386
   32   2.32000     1.17803495     0.00059472
   32   2.33000     1.20568353     0.00087805
   32   2.34000     1.23158176     0.00055586
   34   2.20000     1.01372486     0.00006491
   34   2.21000     1.01755051     0.00012697
   34   2.22000     1.02234688     0.00017659
   34   2.23000     1.02843838     0.00017342
   34   2.24000     1.03582514     0.00021274
   34   2.25000     1.04583956     0.00032652
   34   2.26000     1.05836922     0.00029733
   34   2.27000     1.07303420     0.00048923
   34   2.28000     1.09107440     0.00054866
   34   2.29000     1.11133558     0.00056862
   34   2.30000     1.13449324     0.00055767
   34   2.31000     1.15903128     0.00092310
   34   2.32000     1.18707151     0.00086941
   34   2.33000     1.21563672     0.00119833
   34   2.34000     1.24392258     0.00057759
   36   2.20000     1.01267708     0.00005848
   36   2.21000     1.01604978     0.00008561
   36   2.22000     1.02059983     0.00014181
   36   2.23000     1.02681311     0.00012089
   36   2.24000     1.03441093     0.00021600
   36   2.25000     1.04441838     0.00027603
   36   2.26000     1.05730057     0.00035211
   36   2.27000     1.07289104     0.00038679
   36   2.28000     1.09210321     0.00068170
   36   2.29000     1.11378190     0.00049986
   36   2.30000     1.13847385     0.00056223
   36   2.31000     1.16600038     0.00070482
   36   2.32000     1.19566217     0.00079808
   36   2.33000     1.22555100     0.00091104
   36   2.34000     1.25599462     0.00118498
   40   2.20000     1.01063246     0.00007742
   40   2.21000     1.01388244     0.00008886
   40   2.22000     1.01795819     0.00012815
   40   2.23000     1.02380573     0.00007004
   40   2.24000     1.03196211     0.00021144
   40   2.25000     1.04264801     0.00026689
   40   2.26000     1.05610628     0.00037234
   40   2.27000     1.07323378     0.00031238
   40   2.28000     1.09489893     0.00046447
   40   2.29000     1.12047407     0.00047524
   40   2.30000     1.14759442     0.00052906
   40   2.31000     1.18173779     0.00070414
   40   2.32000     1.21463407     0.00077951
   40   2.33000     1.24846614     0.00074850
   40   2.34000     1.28142259     0.00096198
   48   2.20000     1.00758712     0.00005303
   48   2.21000     1.01021999     0.00009215
   48   2.22000     1.01397509     0.00006008
   48   2.23000     1.01943972     0.00012286
   48   2.24000     1.02698178     0.00020171
   48   2.25000     1.03826036     0.00016979
   48   2.26000     1.05359176     0.00020458
   48   2.27000     1.07418443     0.00021512
   48   2.28000     1.10039053     0.00026762
   48   2.29000     1.13031367     0.00034697
   48   2.30000     1.16718434     0.00060750
   48   2.31000     1.20633274     0.00092994
   48   2.32000     1.24857372     0.00123297
   48   2.33000     1.28828459     0.00110968
   48   2.34000     1.32673350     0.00095262
   52   2.20000     1.00646140     0.00005321
   52   2.21000     1.00874712     0.00008496
   52   2.22000     1.01227952     0.00007933
   52   2.23000     1.01734028     0.00011539
   52   2.24000     1.02498289     0.00013393
   52   2.25000     1.03625425     0.00027970
   52   2.26000     1.05240776     0.00028360
   52   2.27000     1.07393577     0.00034373
   52   2.28000     1.10284614     0.00059834
   52   2.29000     1.13792740     0.00050840
   52   2.30000     1.17694245     0.00064266
   52   2.31000     1.22053250     0.00058834
   52   2.32000     1.26525496     0.00080631
   52   2.33000     1.31003336     0.00082051
   52   2.34000     1.34811295     0.00059383
   56   2.20000     1.00561481     0.00002714
   56   2.21000     1.00764698     0.00003323
   56   2.22000     1.01081299     0.00010056
   56   2.23000     1.01558958     0.00009013
   56   2.24000     1.02325901     0.00022847
   56   2.25000     1.03425696     0.00016616
   56   2.26000     1.05110257     0.00038309
   56   2.27000     1.07408303     0.00024220
   56   2.28000     1.10553689     0.00070781
   56   2.29000     1.14264385     0.00056124
   56   2.30000     1.18758540     0.00128913
   56   2.31000     1.23381585     0.00091537
   56   2.32000     1.28279527     0.00140792
   56   2.33000     1.32716241     0.00110657
   56   2.34000     1.36766313     0.00092821
   60   2.20000     1.00491070     0.00001771
   60   2.21000     1.00670742     0.00004011
   60   2.22000     1.00956413     0.00006991
   60   2.23000     1.01416333     0.00010851
   60   2.24000     1.02141009     0.00015405
   60   2.25000     1.03309558     0.00031935
   60   2.26000     1.04975198     0.00022072
   60   2.27000     1.07446929     0.00041133
   60   2.28000     1.10738420     0.00053090
   60   2.29000     1.15116829     0.00131991
   60   2.30000     1.20093792     0.00068983
   60   2.31000     1.24977609     0.00082531
   60   2.32000     1.30162583     0.00083245
   60   2.33000     1.34575102     0.00089833
   60   2.34000     1.38707593     0.00079433
   64   2.20000     1.00437223     0.00002988
   64   2.21000     1.00596792     0.00005450
   64   2.22000     1.00844837     0.00005896
   64   2.23000     1.01265519     0.00010264
   64   2.24000     1.01967138     0.00014474
   64   2.25000     1.03057619     0.00012215
   64   2.26000     1.04844496     0.00031535
   64   2.27000     1.07464679     0.00049310
   64   2.28000     1.11077781     0.00073154
   64   2.29000     1.15644006     0.00063106
   64   2.30000     1.21076355     0.00074865
   64   2.31000     1.26391392     0.00096112
   64   2.32000     1.31720279     0.00117426
   64   2.33000     1.36253248     0.00079513
   64   2.34000     1.40576971     0.00074292
   68   2.20000     1.00383392     0.00003197
   68   2.21000     1.00521556     0.00004044
   68   2.22000     1.00763228     0.00004434
   68   2.23000     1.01145716     0.00011749
   68   2.24000     1.01796734     0.00013694
   68   2.25000     1.02918908     0.00023335
   68   2.26000     1.04689327     0.00027506
   68   2.27000     1.07470888     0.00026669
   68   2.28000     1.11298679     0.00045509
   68   2.29000     1.16239989     0.00054895
   68   2.30000     1.21969439     0.00085505
   68   2.31000     1.27873054     0.00102373
   68   2.32000     1.33236961     0.00119514
   68   2.33000     1.37829216     0.00151518
   68   2.34000     1.41840680     0.00056642
   72   2.20000     1.00338244     0.00001878
   72   2.21000     1.00468695     0.00003249
   72   2.22000     1.00687900     0.00006044
   72   2.23000     1.01053294     0.00009351
   72   2.24000     1.01678490     0.00008191
   72   2.25000     1.02791496     0.00017160
   72   2.26000     1.04608165     0.00025378
   72   2.27000     1.07461173     0.00054230
   72   2.28000     1.11605211     0.00059479
   72   2.29000     1.16926188     0.00079263
   72   2.30000     1.23079679     0.00094264
   72   2.31000     1.29295108     0.00117865
   72   2.32000     1.34672447     0.00097507
   72   2.33000     1.39586965     0.00133857
   72   2.34000     1.43491366     0.00172071
